{
  "Actor": {
    "types": ["character","npc"],
    "templates": {
      "base": {
        "attributes": {
          "classe": "",
          "raca": "",
          "origem": "",
          "divindade": "",
          "pv": {
            "value": 10,
            "min": -500,
            "max": 10,
            "temp": 0
          },
          "pm": {
            "value": 10,
            "min": 0,
            "max": 10,
            "temp": 0
          },
          "nivel": {
            "value": 1
          },
          "xp": {
            "value": 0,
            "min": 0,
            "proximo": 1000
          },
          "movement": {
            "burrow": 0,
            "climb": 0,
            "fly": 0,
            "swim": 0,
            "walk": 30,
            "units": "m",
            "hover": false
          },
          "senses": {
            "darkvision": 0,
            "blindsight": 0,
            "tremorsense": 0,
            "truesight": 0,
            "units": "m",
            "special": ""
          },
          "info": "",
          "cd": 0,
          "hp": 0,
          "conjurador": false,
          "mago": false
        },
        "rd": {
          "value": 0,
          "base": 0,
          "temp": 0,
          "bonus": 0,
          "penalidade": 0
        },
        "defesa": {
          "value": 10,
          "des": true,
          "armad": 0,
          "escud": 0,
          "outro": 0,
          "bonus": 0,
          "penalidade": 0,
          "final": 0
        },
        "armadura": {
          "nome": "",
          "defesa": 0,
          "penalidade": 0,
          "equipado": true
        },
        "escudo": {
          "nome": "",
          "defesa": 0,
          "penalidade": 0,
          "equipado": true
        },
        "atributos": {
          "for": {
            "value": 10,
            "raca": 0,
            "bonus": 0,
            "temp": 0,
            "mod": 0,
            "penalidade": 0
          },
          "des": {
            "value": 10,
            "raca": 0,
            "bonus": 0,
            "temp": 0,
            "mod": 0,
            "penalidade": 0
          },
          "con": {
            "value": 10,
            "raca": 0,
            "bonus": 0,
            "temp": 0,
            "mod": 0,
            "penalidade": 0
          },
          "int": {
            "value": 10,
            "raca": 0,
            "bonus": 0,
            "temp": 0,
            "mod": 0,
            "penalidade": 0
          },
          "sab": {
            "value": 10,
            "raca": 0,
            "bonus": 0,
            "temp": 0,
            "mod": 0,
            "penalidade": 0
          },
          "car": {
            "value": 10,
            "raca": 0,
            "bonus": 0,
            "temp": 0,
            "mod": 0,
            "penalidade": 0
          }
        },
        "pericias": {
          "acr": {
            "label": "Acrobacia",
            "value": 0,
            "atributo": "des",
            "st": false,
            "pda": true,
            "treinado": 0,
            "treino": 0,
            "outros": 0,
            "notes": "",
            "mod": 0,
            "temp": 0,
            "bonus": 0,
            "penalidade": 0
          },
          "ade": {
            "label": "Adestramento",
            "value": 0,
            "atributo": "car",
            "st": true,
            "pda": false,
            "treinado": 0,
            "treino": 0,
            "outros": 0,
            "notes": "",
            "mod": 0,
            "temp": 0,
            "bonus": 0,
            "penalidade": 0
          },
          "atl": {
            "label": "Atletismo",
            "value": 0,
            "atributo": "for",
            "st": false,
            "pda": false,
            "treinado": 0,
            "treino": 0,
            "outros": 0,
            "notes": "",
            "mod": 0,
            "temp": 0,
            "bonus": 0,
            "penalidade": 0
          },
          "atu": {
            "label": "Atuação",
            "value": 0,
            "atributo": "car",
            "st": false,
            "pda": false,
            "treinado": 0,
            "treino": 0,
            "outros": 0,
            "notes": "",
            "mod": 0,
            "temp": 0,
            "bonus": 0,
            "penalidade": 0
          },
          "cav": {
            "label": "Cavalgar",
            "value": 0,
            "atributo": "des",
            "st": false,
            "pda": false,
            "treinado": 0,
            "treino": 0,
            "outros": 0,
            "notes": "",
            "mod": 0,
            "temp": 0,
            "bonus": 0,
            "penalidade": 0
          },
          "con": {
            "label": "Conhecimento",
            "value": 0,
            "atributo": "int",
            "st": true,
            "pda": false,
            "treinado": 0,
            "treino": 0,
            "outros": 0,
            "notes": "",
            "mod": 0,
            "temp": 0,
            "bonus": 0,
            "penalidade": 0
          },
          "cur": {
            "label": "Cura",
            "value": 0,
            "atributo": "sab",
            "st": false,
            "pda": false,
            "treinado": 0,
            "treino": 0,
            "outros": 0,
            "notes": "",
            "mod": 0,
            "temp": 0,
            "bonus": 0,
            "penalidade": 0
          },
          "dip": {
            "label": "Diplomacia",
            "value": 0,
            "atributo": "car",
            "st": false,
            "pda": false,
            "treinado": 0,
            "treino": 0,
            "outros": 0,
            "notes": "",
            "mod": 0,
            "temp": 0,
            "bonus": 0,
            "penalidade": 0
          },
          "eng": {
            "label": "Enganação",
            "value": 0,
            "atributo": "car",
            "st": false,
            "pda": false,
            "treinado": 0,
            "treino": 0,
            "outros": 0,
            "notes": "",
            "mod": 0,
            "temp": 0,
            "bonus": 0,
            "penalidade": 0
          },
          "for": {
            "label": "Fortitude",
            "value": 0,
            "atributo": "con",
            "st": false,
            "pda": false,
            "treinado": 0,
            "treino": 0,
            "outros": 0,
            "notes": "",
            "mod": 0,
            "temp": 0,
            "bonus": 0,
            "penalidade": 0
          },
          "fur": {
            "label": "Furtividade",
            "value": 0,
            "atributo": "des",
            "st": false,
            "pda": true,
            "treinado": 0,
            "treino": 0,
            "outros": 0,
            "notes": "",
            "mod": 0,
            "temp": 0,
            "bonus": 0,
            "penalidade": 0
          },
          "gue": {
            "label": "Guerra",
            "value": 0,
            "atributo": "int",
            "st": true,
            "pda": false,
            "treinado": 0,
            "treino": 0,
            "outros": 0,
            "notes": "",
            "mod": 0,
            "temp": 0,
            "bonus": 0,
            "penalidade": 0
          },
          "ini": {
            "label": "Iniciativa",
            "value": 0,
            "atributo": "des",
            "st": false,
            "pda": false,
            "treinado": 0,
            "treino": 0,
            "outros": 0,
            "notes": "",
            "mod": 0,
            "temp": 0,
            "bonus": 0,
            "penalidade": 0
          },
          "int": {
            "label": "Intimidação",
            "value": 0,
            "atributo": "car",
            "st": false,
            "pda": false,
            "treinado": 0,
            "treino": 0,
            "outros": 0,
            "notes": "",
            "mod": 0,
            "temp": 0,
            "bonus": 0,
            "penalidade": 0
          },
          "intu": {
            "label": "Intuição",
            "value": 0,
            "atributo": "sab",
            "st": false,
            "pda": false,
            "treinado": 0,
            "treino": 0,
            "outros": 0,
            "notes": "",
            "mod": 0,
            "temp": 0,
            "bonus": 0,
            "penalidade": 0
          },
          "inv": {
            "label": "Investigação",
            "value": 0,
            "atributo": "int",
            "st": false,
            "pda": false,
            "treinado": 0,
            "treino": 0,
            "outros": 0,
            "notes": "",
            "mod": 0,
            "temp": 0,
            "bonus": 0,
            "penalidade": 0
          },
          "jog": {
            "label": "Jogatina",
            "value": 0,
            "atributo": "car",
            "st": false,
            "pda": false,
            "treinado": 0,
            "treino": 0,
            "outros": 0,
            "notes": "",
            "mod": 0,
            "temp": 0,
            "bonus": 0,
            "penalidade": 0
          },
          "lad": {
            "label": "Ladinagem",
            "value": 0,
            "atributo": "des",
            "st": true,
            "pda": true,
            "treinado": 0,
            "treino": 0,
            "outros": 0,
            "notes": "",
            "mod": 0,
            "temp": 0,
            "bonus": 0,
            "penalidade": 0
          },
          "lut": {
            "label": "Luta",
            "value": 0,
            "atributo": "for",
            "st": false,
            "pda": false,
            "treinado": 0,
            "treino": 0,
            "outros": 0,
            "notes": "",
            "mod": 0,
            "temp": 0,
            "bonus": 0,
            "penalidade": 0
          },
          "mis": {
            "label": "Misticismo",
            "value": 0,
            "atributo": "int",
            "st": true,
            "pda": false,
            "treinado": 0,
            "treino": 0,
            "outros": 0,
            "notes": "",
            "mod": 0,
            "temp": 0,
            "bonus": 0,
            "penalidade": 0
          },
          "nob": {
            "label": "Nobreza",
            "value": 0,
            "atributo": "int",
            "st": true,
            "pda": false,
            "treinado": 0,
            "treino": 0,
            "outros": 0,
            "notes": "",
            "mod": 0,
            "temp": 0,
            "bonus": 0,
            "penalidade": 0
          },
          "ofi": {
            "label": "Oficios",
            "value": 0,
            "atributo": "int",
            "st": false,
            "pda": false,
            "treinado": 0,
            "treino": 0,
            "outros": 0,
            "notes": "",
            "mod": 0,
            "temp": 0,
            "mais": [],
            "bonus": 0,
            "penalidade": 0
          },
          "per": {
            "label": "Percepção",
            "value": 0,
            "atributo": "sab",
            "st": false,
            "pda": false,
            "treinado": 0,
            "treino": 0,
            "outros": 0,
            "notes": "",
            "mod": 0,
            "temp": 0,
            "bonus": 0,
            "penalidade": 0
          },
          "pil": {
            "label": "Pilotagem",
            "value": 0,
            "atributo": "des",
            "st": true,
            "pda": false,
            "treinado": 0,
            "treino": 0,
            "outros": 0,
            "notes": "",
            "mod": 0,
            "temp": 0,
            "bonus": 0,
            "penalidade": 0
          },
          "pon": {
            "label": "Pontaria",
            "value": 0,
            "atributo": "des",
            "st": false,
            "pda": false,
            "treinado": 0,
            "treino": 0,
            "outros": 0,
            "notes": "",
            "mod": 0,
            "temp": 0,
            "bonus": 0,
            "penalidade": 0
          },
          "ref": {
            "label": "Reflexos",
            "value": 0,
            "atributo": "des",
            "st": false,
            "pda": false,
            "treinado": 0,
            "treino": 0,
            "outros": 0,
            "notes": "",
            "mod": 0,
            "temp": 0,
            "bonus": 0,
            "penalidade": 0
          },
          "rel": {
            "label": "Religião",
            "value": 0,
            "atributo": "sab",
            "st": true,
            "pda": false,
            "treinado": 0,
            "treino": 0,
            "outros": 0,
            "notes": "",
            "mod": 0,
            "temp": 0,
            "bonus": 0,
            "penalidade": 0
          },
          "sob": {
            "label": "Sobrevivência",
            "value": 0,
            "atributo": "sab",
            "st": false,
            "pda": false,
            "treinado": 0,
            "treino": 0,
            "outros": 0,
            "notes": "",
            "mod": 0,
            "temp": 0,
            "bonus": 0,
            "penalidade": 0
          },
          "von": {
            "label": "Vontade",
            "value": 0,
            "atributo": "sab",
            "st": false,
            "pda": false,
            "treinado": 0,
            "treino": 0,
            "outros": 0,
            "notes": "",
            "mod": 0,
            "temp": 0,
            "bonus": 0,
            "penalidade": 0
          }
        },
        "periciasCustom": {},
        "resistencias": "",
        "tamanho": "Médio",
        "deslocamento": {
          "base": 9,
          "bonus": 0,
          "penalidade": 0,
          "total": 9,
          "cond": "nao",
          "subst": 0,
          "descricao": ""
        },
        "detalhes": {
          "biografia": "",
          "dinheiro": {
            "tt": 0,
            "to": 0,
            "tp": 0,
            "tc": 0
          },
          "carga": 0
        },
        "referencias": {},
        "modificadores": {
          "atributos" : {
            "bonus" : 0,
            "penalidade" : 0
          },
          "pericias" : {
            "bonus" : 0,
            "penalidade" : 0
          },
          "ataques" : {
            "bonus" : 0,
            "penalidade" : 0
          },
          "custosPM": {
            "bonus": 0,
            "penalidade": 0
          }
        }
      }
    },
    "character": {
      "templates": ["base"],
      "detalhes": {
        "altura": 0,
        "peso": 0,
        "aparencia": "",
        "personalidade": "",
        "cargaa": {
          "value": 0,
          "medio": 3,
          "max": 10
        }
      },
      "biography":""
    },
    "npc": {
      "templates": ["base"],
      "attributes": {
        "nd": ""
      },
      "sentidos":"",
      "biography":"",
      "equipament":"",
      "treasure":""
    }
  },
  "Item": {
    "types": ["arma","consumivel","equip","magia","poder","tesouro"],
    "templates": {
      "itemDescription": {
        "description": {
          "value": "",
          "chat": "",
          "unidentified": ""
        },
        "source": ""
      },
      "base": {
        "description": ""
      },
      "objeto":{
        "peso": 0,
        "qtd": 1,
        "preco": 0
      },
      "aprimoramento": {
        "aprimoramentos": []
      }
    },
    "equip": {
      "templates": ["base", "objeto"],
      "equipado": false,
      "tipo": "leve",
      "armadura": {
        "value": 0,
        "penalidade": 0
      }
    },
    "poder": {
      "templates": ["base"],
      "custo": "",
      "roll": "",
      "tipo": "",
      "subtipo": "",
      "cd": 0,
      "resistencia": "",
      "atrRes": ""
    },
    "magia": {
      "templates": ["base","aprimoramento"],
      "tipo": "",
      "circulo": 1,
      "custo": 1,
      "preparada": false,
      "escola": "",
      "execucao": "",
      "alcance": "",
      "duracao": "",
      "resistencia": "",
      "atrRes": "",
      "alvo": "",
      "area": "",
      "cd": 0,
      "efeito": ""
    },
    "tesouro": {
      "templates": ["base","objeto"]
    },
    "ataque": {
      "templates": ["base"],
      "arma": "",
      "pericia": "lut",
      "bonusAtq": 0,
      "_bonusAtq": "0",
      "dano": "1d6",
      "_bonusDano": "0",
      "atrDan": "for",
      "criticoM": 20,
      "criticoX": 2,
      "lancinante": false,
      "tipo": "",
      "alcance": "",
      "municao": 0,
      "custo": 0
    },
    "arma": {
      "templates": ["base","objeto"],
      "pericia": "lut",
      "atrDan": "for",
      "dano": "1d6",
      "atqBns": "0",
      "danoBns": "0",
      "criticoM": 20,
      "criticoX": 2,
      "lancinante": false,
      "tipo": "",
      "alcance": "",
      "custo": 0,
      "tipoUso": "simples",
      "propriedades": {"adaptavel":false,"agil":false,"alongada":false,"arremesso":false,"ataqueDistancia":false,"duasMaos":false,"dupla":false,"leve":false,"municao":false,"versatil":false}
    },
    "consumivel": {
      "templates": ["base","objeto"],
      "efeito": ""
    },
    "skill":{
      "templates": ["itemDescription"],
      "total":0,
      "bonus":0,
      "ability":"",
      "trained":false,
      "reqTraining":false,
      "armorPenalty":false,
      "toIniciative":false,
      "groups": {}
    }
  }
}
